{
  "type": "service_account",
  "project_id": "weatherstation-61846",
  "private_key_id": "2d4aa3f933817ccd90c9f42ec233a7c51a1c706b",
  "private_key": "-----BEGIN PRIVATE KEY-----\nMIIEvQIBADANBgkqhkiG9w0BAQEFAASCBKcwggSjAgEAAoIBAQDP/SQhGkuZyq4t\nXUTdRbPQXlvOJJo0oZci8xjtjUbpHP1CWtXbY0XibJH+JalH+Xcmrm7E0x5EnSL4\nkbboOOqY9iKhptwxBJ47iJ2vwZr1+mmfIBEnXBvsIF3KwKALlVMrilhzCM++GU16\nPR1TiwPYuigqwrTV017e7YcK/D+vn20zWZ0ctobDhParsIi/ZlvsnTXBv1eju9xM\nu0c0wcuJllpW2sToxrDearFqc39bdiSC+EX7SlQzdADQQWyHcbBdbem7rb725DJN\n0Zfq/OtxarPGFmebRIyPHdp8I9wpig8p8+fPltZdTLCMGqrtfFtCPDMpQs7Kb6O6\ndW5SrZSbAgMBAAECggEAMlsMc0NFiH+Mugj50kS86zbdLUSpXRK+X8TRhToOMARH\nwNfzLQGU+uPkWM7PdFCOq3vR769Zha0xuVK2IPUev1fgPJkEeI2wraM+4j2SgflV\ntyPxY0EmtX2El8EZPpSxpToCfh9lBJZlrrG7Nu3SSZeQgAHR/G8HahvB9UPrO16D\nOlfJagEByBG2bU0o3HaMvlp+8tmj/4TfTkZdJOhVyFjg2jmw5EylWLkXNLDhBHYr\n1TnhfxU+VBGnWSSdpqzO9x1BxRdqAzvaqHZRjcokpNGgsp7Wq8RnUEJUzogK/0UW\nbvy/Zbyt0Nn2QpaZ7gPnHKos8K2DBKPlYxvXGOpvgQKBgQDoN3XmBKFdIIC/O5Qh\nR8o9v7W91Cle4o64WzWHPM5a79y0uO0++VFKpHJUJCrBV0RHmZMLUDP6CkLHtY+Z\n/9GTEAAuPd3jCa+pisxlsBp1ThFxLgCkYVcnZTYoCyovHE2fEn0Xz8V2yGwhtUwP\nPbnSNdm7PPj/B+lM1u7x9RkgQQKBgQDlSnI/doZlM+SRzgzprPVu2Ph8LpCFVByf\nNKluiQmMb9zVDK4EdZKj2lHxLfPZaBgbruGxNMvSc6rqfGtmeZTTjf5oq18pHiyl\nebUOzDnBlPHQ5Jm4BPlVRuuA7YyZ0JYqGcSzqPNXx7xJY5RW6buD0/Ff6vVB8EQw\naKkO0Z+92wKBgQC3O/QDAYpWkqwkuZ1kOWKjIOAGnx/Z6EmXvRja0qc96GEuFXHX\nLCHyFRrFvBgkoXiWSt9VoP6ygWA6d9CNQuga9BhAZL7uRJlg3c31O2VVRLnMpfEJ\nxGliA6IdLNonfFzfdVZR8Leux+1TF9yhdiJndeiNr0oG6zYzVLINKEqgQQKBgHb6\nfXQu9agYGFgMWqj6xdSCI9aUdwuoTL3UHsMrutezyByJWtcXh0Mc635BwRIkMLZU\nteo1IjqPKLZKX5SqLC7mtIftvRBiBvrKv8fw81tfBWfG53kUo6i7h0K8gUPjd7ha\n7LXpSnRXQX23fWboHBRY6xxBmIhhu5B/DpKQ9doXAoGADS7QFCJiH+1kTunpD0ep\nOrBwNnaRQ3RucWQfL+EFRQrVxqE2bLCtPimEpE3Rdr/Qaug25C7+7xi0Z4M99Fo4\ns0ufUThmRj290mN0Po1FLVlLkq5iLCfkHnrfY7gcF4LVsXbgwqcg82y+U/W6vN10\nBdw9Zq25oAl3YuyenjAxKBI=\n-----END PRIVATE KEY-----\n",
  "client_email": "firebase-adminsdk-g13vg@weatherstation-61846.iam.gserviceaccount.com",
  "client_id": "100790627695579795141",
  "auth_uri": "https://accounts.google.com/o/oauth2/auth",
  "token_uri": "https://oauth2.googleapis.com/token",
  "auth_provider_x509_cert_url": "https://www.googleapis.com/oauth2/v1/certs",
  "client_x509_cert_url": "https://www.googleapis.com/robot/v1/metadata/x509/firebase-adminsdk-g13vg%40weatherstation-61846.iam.gserviceaccount.com"
}
